Dados em Informações para as Ciências Sociais
…
# salvar o arquivo csv como o objeto "despesas"
despesas <- read_csv(file = "dados/dados_despesas_paraiba.csv")

Importando dados de despesas municipais (Paraíba) usando a função read_csv():

# importar o pacote
library(tidyverse)

# salvar o arquivo csv como o objeto "despesas"
despesas <- read_csv(file = "dados/dados_despesas_paraiba.csv")

# mostrar apenas as primeiras linhas do banco de dados:
despesas

# A tibble: 355,142 × 6
     ano municipio   conta      despesas_empenh… despesas_liquid… despesas_pagas
   <dbl> <chr>       <chr>                 <dbl>            <dbl>          <dbl>
 1  2005 Água Branca Abastecim…               0                NA             NA
 2  2005 Água Branca Ação Judi…               0                NA             NA
 3  2005 Água Branca Ação Legi…           27679.               NA             NA
 4  2005 Água Branca Administr…          734413.               NA             NA
 5  2005 Água Branca Administr…               0                NA             NA
 6  2005 Água Branca Administr…               0                NA             NA
 7  2005 Água Branca Administr…           72369.               NA             NA
 8  2005 Água Branca Administr…          615539.               NA             NA
 9  2005 Água Branca Agricultu…           98226.               NA             NA
10  2005 Água Branca Álcool                   0                NA             NA
# … with 355,132 more rows
…
Funcionamento da função filter()

filter(<DADOS>, <REGRAS>)

Se quisermos filtrar as despesas dos municípios para o ano de 2020:

filter(despesas, ano == 2020)

# A tibble: 8,416 × 6
     ano municipio   conta      despesas_empenh… despesas_liquid… despesas_pagas
   <dbl> <chr>       <chr>                 <dbl>            <dbl>          <dbl>
 1  2020 Água Branca Ação Legi…          955491.          955491.        955491.
 2  2020 Água Branca Administr…         2817531.         2817531.       2817531.
 3  2020 Água Branca Administr…         1119820.         1119820.       1119820.
 4  2020 Água Branca Administr…         2912672.         2910913.       2910913.
 5  2020 Água Branca Agricultu…         1007174.         1007174.       1007174.
 6  2020 Água Branca Assistênc…          314001.          313501.        313501.
 7  2020 Água Branca Assistênc…          824082.          824082.        823932.
 8  2020 Água Branca Assistênc…         3673068.         3673068.       3635468.
 9  2020 Água Branca Assistênc…         1138083.         1137583.       1137433.
10  2020 Água Branca Atenção B…         5688206.         5688206.       5677949.
# … with 8,406 more rows

Se quisermos filtrar as despesas dos municípios para o ano de 2020 e para o município de João Pessoa:

filter(despesas, ano == 2020, municipio == "João Pessoa")

# A tibble: 80 × 6
     ano municipio   conta      despesas_empenh… despesas_liquid… despesas_pagas
   <dbl> <chr>       <chr>                 <dbl>            <dbl>          <dbl>
 1  2020 João Pessoa Administr…       274470039.       267409380.     266825012.
 2  2020 João Pessoa Administr…        24393906.        24393906.      24393906.
 3  2020 João Pessoa Administr…         5886106.         5886106.       5886085.
 4  2020 João Pessoa Administr…       576784503.       567150258.     566412083.
 5  2020 João Pessoa Assistênc…        10212105.         9658881.       9657681.
 6  2020 João Pessoa Assistênc…            8236.            8168.          8168.
 7  2020 João Pessoa Assistênc…              NA               NA             NA 
 8  2020 João Pessoa Assistênc…        18842495.        18424873.      18408734.
 9  2020 João Pessoa Assistênc…       322414670.       283332615.     282052325 
10  2020 João Pessoa Assistênc…        30484971.        29514057.      29492558.
# … with 70 more rows
…
# ao invés de escrever assim:
filter(despesas, ano == 2020, municipio == "João Pessoa")

# escrevemos assim:
despesas |> filter(ano == 2020, municipio == "João Pessoa")

# A tibble: 80 × 6
     ano municipio   conta      despesas_empenh… despesas_liquid… despesas_pagas
   <dbl> <chr>       <chr>                 <dbl>            <dbl>          <dbl>
 1  2020 João Pessoa Administr…       274470039.       267409380.     266825012.
 2  2020 João Pessoa Administr…        24393906.        24393906.      24393906.
 3  2020 João Pessoa Administr…         5886106.         5886106.       5886085.
 4  2020 João Pessoa Administr…       576784503.       567150258.     566412083.
 5  2020 João Pessoa Assistênc…        10212105.         9658881.       9657681.
 6  2020 João Pessoa Assistênc…            8236.            8168.          8168.
 7  2020 João Pessoa Assistênc…              NA               NA             NA 
 8  2020 João Pessoa Assistênc…        18842495.        18424873.      18408734.
 9  2020 João Pessoa Assistênc…       322414670.       283332615.     282052325 
10  2020 João Pessoa Assistênc…        30484971.        29514057.      29492558.
# … with 70 more rows
…
Podemos selecionar apenas as variáveis desejadas, como ano, município, conta e valor (excluindo o nome do estado):

despesas |> select(ano, municipio, conta, despesas_empenhadas)

# A tibble: 355,142 × 4
     ano municipio   conta                       despesas_empenhadas
   <dbl> <chr>       <chr>                                     <dbl>
 1  2005 Água Branca Abastecimento                                0 
 2  2005 Água Branca Ação Judiciária                              0 
 3  2005 Água Branca Ação Legislativa                         27679.
 4  2005 Água Branca Administração                           734413.
 5  2005 Água Branca Administração de Concessões                  0 
 6  2005 Água Branca Administração de Receitas                    0 
 7  2005 Água Branca Administração Financeira                 72369.
 8  2005 Água Branca Administração Geral                     615539.
 9  2005 Água Branca Agricultura                              98226.
10  2005 Água Branca Álcool                                       0 
# … with 355,132 more rows

Podemos usar o |> para concatenar filter() e select():

despesas |> 
  filter(ano == 2020 & conta == "Saúde") |> 
  select(municipio, despesas_empenhadas)

# A tibble: 220 × 2
   municipio     despesas_empenhadas
   <chr>                       <dbl>
 1 Água Branca             10651712.
 2 Aguiar                   7059565.
 3 Alagoa Grande           20666011.
 4 Alagoa Nova             12241806.
 5 Alagoinha               10179579.
 6 Alcantil                 6765119.
 7 Alhandra                24493996.
 8 Amparo                   3787946.
 9 Aparecida                5900023.
10 Araçagi                 12576494.
# … with 210 more rows
…
Note que a tabela está ordenada por nome do município. E se quisermos ordenar por valor?

despesas |> 
  filter(ano == 2020 & conta == "Saúde") |> 
  select(municipio, despesas_empenhadas)

# A tibble: 220 × 2
   municipio     despesas_empenhadas
   <chr>                       <dbl>
 1 Água Branca             10651712.
 2 Aguiar                   7059565.
 3 Alagoa Grande           20666011.
 4 Alagoa Nova             12241806.
 5 Alagoinha               10179579.
 6 Alcantil                 6765119.
 7 Alhandra                24493996.
 8 Amparo                   3787946.
 9 Aparecida                5900023.
10 Araçagi                 12576494.
# … with 210 more rows

Note que a tabela está ordenada por nome do município. E se quisermos ordenar por valor?

despesas |> 
  filter(ano == 2020 & conta == "Saúde") |> 
  select(municipio, despesas_empenhadas) |> 
  arrange(despesas_empenhadas) # ordem crescente

# A tibble: 220 × 2
   municipio                 despesas_empenhadas
   <chr>                                   <dbl>
 1 Joca Claudino                        3157430.
 2 Coxixola                             3265783.
 3 Carrapateira                         3323506.
 4 São José do Brejo do Cruz            3410302.
 5 Zabelê                               3541968.
 6 São José do Bonfim                   3543451.
 7 Santo André                          3654349.
 8 São Domingos do Cariri               3710854.
 9 Caraúbas                             3766775.
10 Amparo                               3787946.
# … with 210 more rows

Note que a tabela está ordenada por nome do município. E se quisermos ordenar por valor?

despesas |> 
  filter(ano == 2020 & conta == "Saúde") |> 
  select(municipio, despesas_empenhadas) |> 
  arrange(desc(despesas_empenhadas)) # ordem decrescente

# A tibble: 220 × 2
   municipio      despesas_empenhadas
   <chr>                        <dbl>
 1 João Pessoa             765849157.
 2 Campina Grande          405886878.
 3 Cabedelo                 70257925.
 4 Patos                    69975229.
 5 Santa Rita               69463831.
 6 Sousa                    58499401.
 7 Bayeux                   47621883.
 8 Guarabira                39262438.
 9 Cajazeiras               38091615.
10 Monteiro                 37189917.
# … with 210 more rows
…
Podemos criar uma variável chamada restos_a_pagar_processadas que são as dispesas liquidadas e não pagas.

# vamos filtrar apenas para gastos de saúde em 2020
despesas |> 
  filter(ano == 2020, conta == "Saúde") |> 
  # e criar a variável de restos a pagar com mutate()
  mutate(restos_a_pagar_processadas = despesas_liquidadas - despesas_pagas) |> 
  # para facilitar a visualização das informações, vamos usar select e arrange:
  select(municipio, restos_a_pagar_processadas) |> arrange(desc(restos_a_pagar_processadas))

# A tibble: 220 × 2
   municipio       restos_a_pagar_processadas
   <chr>                                <dbl>
 1 Campina Grande                   20262693.
 2 Bayeux                            5360486.
 3 Cabedelo                          4011032.
 4 Patos                             3542946.
 5 Piancó                            2487771.
 6 Cajazeiras                        2093749.
 7 Princesa Isabel                   1874255.
 8 Monteiro                          1499373.
 9 João Pessoa                       1433962.
10 São Bento                         1308499.
# … with 210 more rows
…
