Transformando Dados em Informações
…
# salvar o arquivo csv como o objeto "despesas"
despesas <- read_csv(file = "dados/dados_despesas_paraiba.csv")

Importando dados de despesas municipais (Paraíba) usando a função read_csv():

# importar o pacote
library(tidyverse)

# salvar o arquivo csv como o objeto "despesas"
despesas <- read_csv(file = "dados/dados_despesas_paraiba.csv")

# mostrar apenas as primeiras linhas do banco de dados:
despesas

# A tibble: 355,142 × 8
     ano municipio   nome_microrregiao nome_mesorregiao conta   despesas_empenh…
   <dbl> <chr>       <chr>             <chr>            <chr>              <dbl>
 1  2005 Água Branca Serra do Teixeira Sertão Paraibano Abaste…               0 
 2  2005 Água Branca Serra do Teixeira Sertão Paraibano Ação J…               0 
 3  2005 Água Branca Serra do Teixeira Sertão Paraibano Ação L…           27679.
 4  2005 Água Branca Serra do Teixeira Sertão Paraibano Admini…          734413.
 5  2005 Água Branca Serra do Teixeira Sertão Paraibano Admini…               0 
 6  2005 Água Branca Serra do Teixeira Sertão Paraibano Admini…               0 
 7  2005 Água Branca Serra do Teixeira Sertão Paraibano Admini…           72369.
 8  2005 Água Branca Serra do Teixeira Sertão Paraibano Admini…          615539.
 9  2005 Água Branca Serra do Teixeira Sertão Paraibano Agricu…           98226.
10  2005 Água Branca Serra do Teixeira Sertão Paraibano Álcool                0 
# … with 355,132 more rows, and 2 more variables: despesas_liquidadas <dbl>,
#   despesas_pagas <dbl>
…
Funcionamento da função filter()

filter(<DADOS>, <REGRAS>)

Se quisermos filtrar as despesas dos municípios para o ano de 2020:

filter(despesas, ano == 2020)

# A tibble: 8,416 × 8
     ano municipio   nome_microrregiao nome_mesorregiao conta   despesas_empenh…
   <dbl> <chr>       <chr>             <chr>            <chr>              <dbl>
 1  2020 Água Branca Serra do Teixeira Sertão Paraibano Ação L…          955491.
 2  2020 Água Branca Serra do Teixeira Sertão Paraibano Admini…         2817531.
 3  2020 Água Branca Serra do Teixeira Sertão Paraibano Admini…         1119820.
 4  2020 Água Branca Serra do Teixeira Sertão Paraibano Admini…         2912672.
 5  2020 Água Branca Serra do Teixeira Sertão Paraibano Agricu…         1007174.
 6  2020 Água Branca Serra do Teixeira Sertão Paraibano Assist…          314001.
 7  2020 Água Branca Serra do Teixeira Sertão Paraibano Assist…          824082.
 8  2020 Água Branca Serra do Teixeira Sertão Paraibano Assist…         3673068.
 9  2020 Água Branca Serra do Teixeira Sertão Paraibano Assist…         1138083.
10  2020 Água Branca Serra do Teixeira Sertão Paraibano Atençã…         5688206.
# … with 8,406 more rows, and 2 more variables: despesas_liquidadas <dbl>,
#   despesas_pagas <dbl>

Se quisermos filtrar as despesas dos municípios para o ano de 2020 e para o município de João Pessoa:

filter(despesas, ano == 2020, municipio == "João Pessoa")

# A tibble: 80 × 8
     ano municipio   nome_microrregiao nome_mesorregiao conta   despesas_empenh…
   <dbl> <chr>       <chr>             <chr>            <chr>              <dbl>
 1  2020 João Pessoa João Pessoa       Mata Paraibana   Admini…       274470039.
 2  2020 João Pessoa João Pessoa       Mata Paraibana   Admini…        24393906.
 3  2020 João Pessoa João Pessoa       Mata Paraibana   Admini…         5886106.
 4  2020 João Pessoa João Pessoa       Mata Paraibana   Admini…       576784503.
 5  2020 João Pessoa João Pessoa       Mata Paraibana   Assist…        10212105.
 6  2020 João Pessoa João Pessoa       Mata Paraibana   Assist…            8236.
 7  2020 João Pessoa João Pessoa       Mata Paraibana   Assist…              NA 
 8  2020 João Pessoa João Pessoa       Mata Paraibana   Assist…        18842495.
 9  2020 João Pessoa João Pessoa       Mata Paraibana   Assist…       322414670.
10  2020 João Pessoa João Pessoa       Mata Paraibana   Assist…        30484971.
# … with 70 more rows, and 2 more variables: despesas_liquidadas <dbl>,
#   despesas_pagas <dbl>
…
# ao invés de escrever assim:
filter(despesas, ano == 2020, municipio == "João Pessoa")

# escrevemos assim:
despesas |> # pegue os dados
  filter(ano == 2020, municipio == "João Pessoa") # ENTÃO filtre para...

# A tibble: 80 × 8
     ano municipio   nome_microrregiao nome_mesorregiao conta   despesas_empenh…
   <dbl> <chr>       <chr>             <chr>            <chr>              <dbl>
 1  2020 João Pessoa João Pessoa       Mata Paraibana   Admini…       274470039.
 2  2020 João Pessoa João Pessoa       Mata Paraibana   Admini…        24393906.
 3  2020 João Pessoa João Pessoa       Mata Paraibana   Admini…         5886106.
 4  2020 João Pessoa João Pessoa       Mata Paraibana   Admini…       576784503.
 5  2020 João Pessoa João Pessoa       Mata Paraibana   Assist…        10212105.
 6  2020 João Pessoa João Pessoa       Mata Paraibana   Assist…            8236.
 7  2020 João Pessoa João Pessoa       Mata Paraibana   Assist…              NA 
 8  2020 João Pessoa João Pessoa       Mata Paraibana   Assist…        18842495.
 9  2020 João Pessoa João Pessoa       Mata Paraibana   Assist…       322414670.
10  2020 João Pessoa João Pessoa       Mata Paraibana   Assist…        30484971.
# … with 70 more rows, and 2 more variables: despesas_liquidadas <dbl>,
#   despesas_pagas <dbl>
…
Podemos selecionar apenas as variáveis desejadas, como ano, município, conta e despesas empenhadas:

despesas |> select(ano, municipio, conta, despesas_empenhadas)

# A tibble: 355,142 × 4
     ano municipio   conta                       despesas_empenhadas
   <dbl> <chr>       <chr>                                     <dbl>
 1  2005 Água Branca Abastecimento                                0 
 2  2005 Água Branca Ação Judiciária                              0 
 3  2005 Água Branca Ação Legislativa                         27679.
 4  2005 Água Branca Administração                           734413.
 5  2005 Água Branca Administração de Concessões                  0 
 6  2005 Água Branca Administração de Receitas                    0 
 7  2005 Água Branca Administração Financeira                 72369.
 8  2005 Água Branca Administração Geral                     615539.
 9  2005 Água Branca Agricultura                              98226.
10  2005 Água Branca Álcool                                       0 
# … with 355,132 more rows

Podemos usar o |> para concatenar filter() e select():

despesas |> 
  filter(ano == 2020 & conta == "Saúde") |> # ENTÃO filtre os dados
  select(municipio, despesas_empenhadas) # então selecione as colunas

# A tibble: 220 × 2
   municipio     despesas_empenhadas
   <chr>                       <dbl>
 1 Água Branca             10651712.
 2 Aguiar                   7059565.
 3 Alagoa Grande           20666011.
 4 Alagoa Nova             12241806.
 5 Alagoinha               10179579.
 6 Alcantil                 6765119.
 7 Alhandra                24493996.
 8 Amparo                   3787946.
 9 Aparecida                5900023.
10 Araçagi                 12576494.
# … with 210 more rows
…
Note que a tabela está ordenada por nome do município. E se quisermos ordenar por valor?

despesas |> 
  filter(ano == 2020 & conta == "Saúde") |> 
  select(municipio, despesas_empenhadas)

# A tibble: 220 × 2
   municipio     despesas_empenhadas
   <chr>                       <dbl>
 1 Água Branca             10651712.
 2 Aguiar                   7059565.
 3 Alagoa Grande           20666011.
 4 Alagoa Nova             12241806.
 5 Alagoinha               10179579.
 6 Alcantil                 6765119.
 7 Alhandra                24493996.
 8 Amparo                   3787946.
 9 Aparecida                5900023.
10 Araçagi                 12576494.
# … with 210 more rows

Note que a tabela está ordenada por nome do município. E se quisermos ordenar por valor?

despesas |> 
  filter(ano == 2020 & conta == "Saúde") |> 
  select(municipio, despesas_empenhadas) |> 
  arrange(despesas_empenhadas) # ordem crescente

# A tibble: 220 × 2
   municipio                 despesas_empenhadas
   <chr>                                   <dbl>
 1 Joca Claudino                        3157430.
 2 Coxixola                             3265783.
 3 Carrapateira                         3323506.
 4 São José do Brejo do Cruz            3410302.
 5 Zabelê                               3541968.
 6 São José do Bonfim                   3543451.
 7 Santo André                          3654349.
 8 São Domingos do Cariri               3710854.
 9 Caraúbas                             3766775.
10 Amparo                               3787946.
# … with 210 more rows

Note que a tabela está ordenada por nome do município. E se quisermos ordenar por valor?

despesas |> 
  filter(ano == 2020 & conta == "Saúde") |> 
  select(municipio, despesas_empenhadas) |> 
  arrange(desc(despesas_empenhadas)) # ordem decrescente

# A tibble: 220 × 2
   municipio      despesas_empenhadas
   <chr>                        <dbl>
 1 João Pessoa             765849157.
 2 Campina Grande          405886878.
 3 Cabedelo                 70257925.
 4 Patos                    69975229.
 5 Santa Rita               69463831.
 6 Sousa                    58499401.
 7 Bayeux                   47621883.
 8 Guarabira                39262438.
 9 Cajazeiras               38091615.
10 Monteiro                 37189917.
# … with 210 more rows
…
Podemos criar uma variável chamada restos_a_pagar_processadas que são as dispesas liquidadas e não pagas.

# vamos filtrar apenas para gastos de saúde em 2020
despesas |> 
  filter(ano == 2020, conta == "Saúde") |> 
  # e criar a variável de restos a pagar com mutate()
  mutate(restos_a_pagar_processadas = despesas_liquidadas - despesas_pagas) |> 
  # para facilitar a visualização das informações, vamos usar select e arrange:
  select(municipio, restos_a_pagar_processadas) |> arrange(desc(restos_a_pagar_processadas))

# A tibble: 220 × 2
   municipio       restos_a_pagar_processadas
   <chr>                                <dbl>
 1 Campina Grande                   20262693.
 2 Bayeux                            5360486.
 3 Cabedelo                          4011032.
 4 Patos                             3542946.
 5 Piancó                            2487771.
 6 Cajazeiras                        2093749.
 7 Princesa Isabel                   1874255.
 8 Monteiro                          1499373.
 9 João Pessoa                       1433962.
10 São Bento                         1308499.
# … with 210 more rows
…
Função summarise()

O último verbo do dplyr é o summarise()

Ele colapsa os dados (resume_ em uma única linha

O objetivo é criar medidas como média, medianas, totais e outros.

Para obter o total empenhado com saúde em 2020 podemos:

# filtrar os dados
despesas |> 
  filter(ano == 2020, conta == 'Saúde') 

# A tibble: 220 × 8
     ano municipio     nome_microrregiao nome_mesorregiao conta despesas_empenh…
   <dbl> <chr>         <chr>             <chr>            <chr>            <dbl>
 1  2020 Água Branca   Serra do Teixeira Sertão Paraibano Saúde        10651712.
 2  2020 Aguiar        Piancó            Sertão Paraibano Saúde         7059565.
 3  2020 Alagoa Grande Brejo Paraibano   Agreste Paraiba… Saúde        20666011.
 4  2020 Alagoa Nova   Brejo Paraibano   Agreste Paraiba… Saúde        12241806.
 5  2020 Alagoinha     Guarabira         Agreste Paraiba… Saúde        10179579.
 6  2020 Alcantil      Cariri Oriental   Borborema        Saúde         6765119.
 7  2020 Alhandra      Litoral Sul       Mata Paraibana   Saúde        24493996.
 8  2020 Amparo        Cariri Ocidental  Borborema        Saúde         3787946.
 9  2020 Aparecida     Sousa             Sertão Paraibano Saúde         5900023.
10  2020 Araçagi       Guarabira         Agreste Paraiba… Saúde        12576494.
# … with 210 more rows, and 2 more variables: despesas_liquidadas <dbl>,
#   despesas_pagas <dbl>
…
