Transformando Dados em Informações
…
Importando dados

Importando dados de consumo de energia usando a função read_csv():

# importar o pacote
library(tidyverse)

# salvar o arquivo csv como o objeto "consumo_energia"
consumo_energia <- read_csv(file = "dados/consumo_energia_brasil.csv")

# mostrar apenas as primeiras linhas do banco de dados:
consumo_energia

# A tibble: 34,992 × 6
     ano   mes sigla_uf tipo_consumo numero_consumidores  consumo
   <dbl> <dbl> <chr>    <chr>                      <dbl>    <dbl>
 1  2004     1 RO       Total                         NA  112812 
 2  2004     1 AC       Total                         NA   34840.
 3  2004     1 AM       Total                         NA  274773 
 4  2004     1 RR       Total                         NA   31696.
 5  2004     1 PA       Total                         NA 1011353.
 6  2004     1 AP       Total                         NA   43084 
 7  2004     1 TO       Total                         NA   65877.
 8  2004     1 MA       Total                         NA  737033.
 9  2004     1 PI       Total                         NA  131052 
10  2004     1 CE       Total                         NA  518714 
# … with 34,982 more rows
…
A. Função filter

filter(<DADOS>, <REGRAS>)

A. Função filter

Se quisermos filtrar o consumo de energia da Paraíba:

filter(consumo_energia, sigla_uf == "PB")

# A tibble: 1,296 × 6
     ano   mes sigla_uf tipo_consumo numero_consumidores consumo
   <dbl> <dbl> <chr>    <chr>                      <dbl>   <dbl>
 1  2004     1 PB       Total                         NA 236449.
 2  2004     2 PB       Total                         NA 226289.
 3  2004     3 PB       Total                         NA 242215.
 4  2004     4 PB       Total                         NA 235364.
 5  2004     5 PB       Total                         NA 234299.
 6  2004     6 PB       Total                         NA 236512.
 7  2004     7 PB       Total                         NA 235539.
 8  2004     8 PB       Total                         NA 233748.
 9  2004     9 PB       Total                         NA 245146.
10  2004    10 PB       Total                         NA 253094.
# … with 1,286 more rows

A. Função filter

Se quisermos filtrar o consumo de energia da Paraíba apenas para consumidores residenciais:

filter(consumo_energia, sigla_uf == "PB" & tipo_consumo == "Residencial")

# A tibble: 216 × 6
     ano   mes sigla_uf tipo_consumo numero_consumidores consumo
   <dbl> <dbl> <chr>    <chr>                      <dbl>   <dbl>
 1  2004     1 PB       Residencial               820807  78698.
 2  2004     2 PB       Residencial               824164  68827.
 3  2004     3 PB       Residencial               825783  74707.
 4  2004     4 PB       Residencial               827986  75635.
 5  2004     5 PB       Residencial               830305  71575.
 6  2004     6 PB       Residencial               831406  69427.
 7  2004     7 PB       Residencial               820892  68034.
 8  2004     8 PB       Residencial               831829  65568.
 9  2004     9 PB       Residencial               835984  71383.
10  2004    10 PB       Residencial               838592  73991.
# … with 206 more rows
…
Pipe |>

# ao invés de escrever assim:
filter(consumo_energia, ano == 2020, sigla_uf == "PB")

# escrevemos assim:
consumo_energia |> # pegue os dados
  filter(ano == 2020 & sigla_uf == "PB") # ENTÃO filtre para...

# A tibble: 72 × 6
     ano   mes sigla_uf tipo_consumo numero_consumidores consumo
   <dbl> <dbl> <chr>    <chr>                      <dbl>   <dbl>
 1  2020     1 PB       Total                         NA 496091.
 2  2020     2 PB       Total                         NA 495738.
 3  2020     3 PB       Total                         NA 487190.
 4  2020     4 PB       Total                         NA 441137.
 5  2020     5 PB       Total                         NA 441061.
 6  2020     6 PB       Total                         NA 389368.
 7  2020     7 PB       Total                         NA 429711.
 8  2020     8 PB       Total                         NA 441804.
 9  2020     9 PB       Total                         NA 459410 
10  2020    10 PB       Total                         NA 493957.
# … with 62 more rows
…
B. Função select()

Podemos selecionar apenas as variáveis desejadas, como ano, mes, sigla_uf e consumo:

consumo_energia |> 
  select(ano, mes, sigla_uf, consumo)

# A tibble: 34,992 × 4
     ano   mes sigla_uf  consumo
   <dbl> <dbl> <chr>       <dbl>
 1  2004     1 RO        112812 
 2  2004     1 AC         34840.
 3  2004     1 AM        274773 
 4  2004     1 RR         31696.
 5  2004     1 PA       1011353.
 6  2004     1 AP         43084 
 7  2004     1 TO         65877.
 8  2004     1 MA        737033.
 9  2004     1 PI        131052 
10  2004     1 CE        518714 
# … with 34,982 more rows

B. Função select()

Podemos usar o |> para concatenar filter() e select():

consumo_energia |> 
  filter(sigla_uf == "PB" & tipo_consumo == "Residencial") |> # ENTÃO filtre os dados
  select(ano, mes, consumo) # então selecione as colunas

# A tibble: 216 × 3
     ano   mes consumo
   <dbl> <dbl>   <dbl>
 1  2004     1  78698.
 2  2004     2  68827.
 3  2004     3  74707.
 4  2004     4  75635.
 5  2004     5  71575.
 6  2004     6  69427.
 7  2004     7  68034.
 8  2004     8  65568.
 9  2004     9  71383.
10  2004    10  73991.
# … with 206 more rows
…
C. Função mutate()

Podemos criar uma variável chamada data, ao unir dia, mês e ano. Para unir textos, usamos a função paste0:

energia_residencial_pb <- energia_residencial_pb |> 
  # unir ano, mes e o dia "01" com a função paste0
  mutate(data = paste0(ano,"-",mes,"-01")) |> 
  # para o R entender que essa variável é uma data, precisamos converter
  # com a função as.Date()
  mutate(data = as.Date(data))

# agora podemos observar o resultado:
energia_residencial_pb

# A tibble: 216 × 4
     ano   mes consumo data      
   <dbl> <dbl>   <dbl> <date>    
 1  2004     1  78698. 2004-01-01
 2  2004     2  68827. 2004-02-01
 3  2004     3  74707. 2004-03-01
 4  2004     4  75635. 2004-04-01
 5  2004     5  71575. 2004-05-01
 6  2004     6  69427. 2004-06-01
 7  2004     7  68034. 2004-07-01
 8  2004     8  65568. 2004-08-01
 9  2004     9  71383. 2004-09-01
10  2004    10  73991. 2004-10-01
# … with 206 more rows
…
D. Função arrange()

Note que a tabela está ordenada por data. E se quisermos ordenar por valor?

energia_residencial_pb

# A tibble: 216 × 4
     ano   mes consumo data      
   <dbl> <dbl>   <dbl> <date>    
 1  2004     1  78698. 2004-01-01
 2  2004     2  68827. 2004-02-01
 3  2004     3  74707. 2004-03-01
 4  2004     4  75635. 2004-04-01
 5  2004     5  71575. 2004-05-01
 6  2004     6  69427. 2004-06-01
 7  2004     7  68034. 2004-07-01
 8  2004     8  65568. 2004-08-01
 9  2004     9  71383. 2004-09-01
10  2004    10  73991. 2004-10-01
# … with 206 more rows

D. Função arrange()

Note que a tabela está ordenada por data. E se quisermos ordenar por valor?

energia_residencial_pb |> 
  arrange(consumo) # ordem crescente

# A tibble: 216 × 4
     ano   mes consumo data      
   <dbl> <dbl>   <dbl> <date>    
 1  2004     8  65568. 2004-08-01
 2  2004     7  68034. 2004-07-01
 3  2004     2  68827. 2004-02-01
 4  2004     6  69427. 2004-06-01
 5  2005     8  71010. 2005-08-01
 6  2005     7  71264. 2005-07-01
 7  2004     9  71383. 2004-09-01
 8  2004     5  71575. 2004-05-01
 9  2005     9  72031. 2005-09-01
10  2005     6  72169. 2005-06-01
# … with 206 more rows

D. Função arrange()

Note que a tabela está ordenada por nome do município. E se quisermos ordenar por valor?

energia_residencial_pb |> 
  arrange(desc(consumo)) # ordem decrescente

# A tibble: 216 × 4
     ano   mes consumo data      
   <dbl> <dbl>   <dbl> <date>    
 1  2021    12 211558. 2021-12-01
 2  2021     4 201799. 2021-04-01
 3  2021     3 201513. 2021-03-01
 4  2020    12 197014. 2020-12-01
 5  2020    11 196165. 2020-11-01
 6  2020     4 195108. 2020-04-01
 7  2020     5 193505. 2020-05-01
 8  2021     1 192958. 2021-01-01
 9  2021    11 192298. 2021-11-01
10  2020     3 191944. 2020-03-01
# … with 206 more rows
…
